{
    "builders": [
      {
        "type": "virtualbox-iso",
        "iso_url": "http://archive.ubuntu.com/ubuntu/dists/bionic/main/installer-amd64/current/images/netboot/mini.iso",
        "iso_checksum": "md5:8388f7232b400bdc80279668847f90da",
        "output_directory": "output_centos_tdhtest",
        "shutdown_command": "echo 'packer' | sudo -S shutdown -P now",
        "ssh_username": "root",
        "ssh_password": "12345"
      }
    ]
  }
  